<?xml version="1.0" standalone="no"?>
<!DOCTYPE svg PUBLIC "-//W3C//DTD SVG 1.1//EN" "http://www.w3.org/Graphics/SVG/1.1/DTD/svg11.dtd">
<svg xmlns="http://www.w3.org/2000/svg">
<metadata>Copyright (C) 2016 by original authors @ fontello.com</metadata>
<defs>
<font id="fontello" horiz-adv-x="1000" >
<font-face font-family="fontello" font-weight="400" font-stretch="normal" units-per-em="1000" ascent="850" descent="-150" />
<missing-glyph horiz-adv-x="1000" />
<glyph glyph-name="ok" unicode="&#xe800;" d="m932 534q0-22-15-38l-404-404-76-76q-16-15-38-15t-38 15l-76 76-202 202q-15 16-15 38t15 38l76 76q16 16 38 16t38-16l164-165 366 367q16 16 38 16t38-16l76-76q15-16 15-38z" horiz-adv-x="1000" />
<glyph glyph-name="down-open" unicode="&#xe801;" d="m939 399l-414-413q-10-11-25-11t-25 11l-414 413q-11 11-11 26t11 25l92 92q11 11 26 11t25-11l296-296 296 296q11 11 25 11t26-11l92-92q11-11 11-25t-11-26z" horiz-adv-x="1000" />
<glyph glyph-name="facebook" unicode="&#xe802;" d="m535 843v-147h-87q-48 0-65-20t-17-60v-106h164l-22-165h-142v-424h-171v424h-142v165h142v122q0 104 58 161t155 57q82 0 127-7z" horiz-adv-x="571.4" />
<glyph glyph-name="skype" unicode="&#xe803;" d="m655 257q0 28-11 51t-27 38-41 27-46 19-49 13l-58 14q-17 4-25 6t-19 6-17 9-9 12-4 16q0 43 80 43 24 0 43-6t30-16 21-19 23-16 27-7q26 0 42 18t16 43q0 31-32 55t-79 38-101 13q-38 0-74-9t-67-26-49-48-19-72q0-34 10-60t32-42 44-27 58-18l81-20q51-12 63-20 18-11 18-34 0-21-23-36t-58-14q-29 0-51 9t-37 22-25 25-26 21-30 9q-28 0-42-17t-14-41q0-52 68-88t162-37q41 0 78 10t69 30 49 52 19 74z m202-121q0-89-63-152t-151-63q-73 0-131 45-43-9-83-9-80 0-153 31t-126 84-83 125-31 153q0 41 9 84-45 58-45 130 0 89 63 152t151 63q73 0 131-45 43 9 84 9 79 0 152-31t126-84 83-125 31-153q0-41-9-84 45-58 45-130z" horiz-adv-x="857.1" />
<glyph glyph-name="twitter" unicode="&#xe804;" d="m904 622q-37-54-90-93 0-8 0-23 0-73-21-145t-64-139-103-117-144-82-181-30q-151 0-276 81 19-3 43-3 126 0 224 77-59 2-105 36t-64 89q19-2 34-2 24 0 48 6-63 13-104 62t-41 115v2q38-21 82-23-37 25-59 64t-22 86q0 49 25 91 68-83 164-133t208-55q-5 21-5 41 0 75 53 127t127 53q79 0 132-57 61 12 114 44-20-64-79-100 52 6 104 28z" horiz-adv-x="928.6" />
<glyph glyph-name="google" unicode="&#xe805;" d="m547 103q0 14-3 27t-9 24-15 23-16 19-22 20-20 16-23 16-20 15q-9 1-28 1-29 0-58-4t-60-14-54-25-38-42-15-59q0-31 13-57t34-42 48-28 56-16 57-5q32 0 62 7t55 22 41 41 15 61z m-65 479q0 33-9 70t-27 72-47 57-65 23q-24 0-46-11t-37-29q-26-33-26-89 0-26 6-55t17-57 29-52 42-37 54-15q20 0 43 10t37 24q29 31 29 89z m-62 268h232l-76-49h-74q42-35 63-74t22-90q0-40-14-72t-33-52-39-36-33-34-14-37q0-20 18-40t43-38 51-41 43-58 18-79q0-51-28-96-39-68-117-101t-166-32q-74 0-138 24t-96 76q-20 33-20 73 0 46 25 84t66 64q73 46 225 56-17 23-26 41t-9 41q0 22 12 47-26-2-38-2-83 0-139 54t-57 137q0 45 20 88t55 73q43 37 102 55t122 18z" horiz-adv-x="714.3" />
<glyph glyph-name="linkedin" unicode="&#xe806;" d="m195 501v-553h-184v553h184z m12 171q0-41-29-68t-75-27h-1q-46 0-74 27t-28 68q0 41 29 68t75 27 74-27 29-68z m650-407v-317h-183v296q0 59-23 92t-71 33q-35 0-58-19t-36-48q-6-17-6-45v-309h-184q1 223 1 361t0 165l-1 27h184v-80h-1q11 18 23 31t31 29 49 24 64 9q95 0 153-63t58-186z" horiz-adv-x="857.1" />
<glyph glyph-name="search" unicode="&#xe807;" d="m643 386q0 103-74 176t-176 74-177-74-73-176 73-177 177-73 176 73 74 177z m286-465q0-29-22-50t-50-21q-30 0-50 21l-191 191q-100-69-223-69-80 0-153 31t-125 84-84 125-31 153 31 152 84 126 125 84 153 31 152-31 126-84 84-126 31-152q0-123-69-223l191-191q21-21 21-51z" horiz-adv-x="928.6" />
<glyph glyph-name="search-1" unicode="&#xe808;" d="m0-41q0 47 33 80l260 260q-43 82-43 176 0 154 109 265t266 110 266-110 109-266-109-265-266-109q-94 0-176 43l-260-260q-33-33-80-33-45 0-77 32t-32 77z m55 1q0-22 16-39t39-16 40 17l252 252q-45 33-78 78l-252-252q-17-17-17-40z m258 515q0-129 91-221t221-91 221 91 91 221-91 221-221 91-221-91-91-221z m93 0q0 90 65 154t154 65q16 0 16-16t-16-16q-78 0-133-54t-54-133q0-16-16-16t-16 16z" horiz-adv-x="1000" />
<glyph glyph-name="link" unicode="&#xe809;" d="m294 116q14 14 34 14t36-14q32-34 0-70l-42-40q-56-56-132-56-78 0-134 56t-56 132q0 78 56 134l148 148q70 68 144 77t128-43q16-16 16-36t-16-36q-36-32-70 0-50 48-132-34l-148-146q-26-26-26-64t26-62q26-26 63-26t63 26z m450 574q56-56 56-132 0-78-56-134l-158-158q-74-72-150-72-62 0-112 50-14 14-14 34t14 36q14 14 35 14t35-14q50-48 122 24l158 156q28 28 28 64 0 38-28 62-24 26-56 31t-60-21l-50-50q-16-14-36-14t-34 14q-34 34 0 70l50 50q54 54 127 51t129-61z" horiz-adv-x="800" />
<glyph glyph-name="heart" unicode="&#xe80a;" d="m0 476q0 122 88 210 84 84 204 86t208-78q88 80 208 78t204-86q88-88 88-210t-88-210q-4-4-346-342-27-27-66-27t-66 27q-2 0-346 342-88 88-88 210z m63 0q0-97 70-165l346-342q21-23 43 0l345 342q70 68 70 165t-70 165q-66 66-160 68t-164-60l-43-39-43 39q-70 62-164 60t-160-68q-70-68-70-165z m93 7q0 55 39 94t94 39q16 0 16-16t-16-16q-41 0-71-29t-30-72q0-16-16-16t-16 16z" horiz-adv-x="1000" />
<glyph glyph-name="cancel-circled" unicode="&#xe80b;" d="m420 770q174 0 297-123t123-297-123-297-297-123-297 123-123 297 123 297 297 123z m86-420l154 154-86 86-154-152-152 152-88-86 154-154-154-152 88-86 152 152 154-152 86 86z" horiz-adv-x="840" />
<glyph glyph-name="doc" unicode="&#xe80c;" d="m819 638q16-16 27-42t11-50v-642q0-23-15-38t-38-16h-750q-23 0-38 16t-16 38v892q0 23 16 38t38 16h500q22 0 49-11t42-27z m-248 136v-210h210q-5 16-12 23l-175 175q-6 7-23 12z m215-853v572h-232q-23 0-38 15t-16 38v233h-429v-858h715z" horiz-adv-x="857.1" />
<glyph glyph-name="user" unicode="&#xe80d;" d="m786 66q0-67-41-106t-108-39h-488q-67 0-108 39t-41 106q0 30 2 58t8 61 15 60 24 55 34 45 48 30 62 11q5 0 24-12t41-27 60-27 75-12 74 12 61 27 41 27 24 12q34 0 62-11t48-30 34-45 24-55 15-60 8-61 2-58z m-179 498q0-88-63-151t-151-63-152 63-62 151 62 152 152 63 151-63 63-152z" horiz-adv-x="785.7" />
<glyph glyph-name="email" unicode="&#xe80e;" d="m0 62l0 576q0 1 3 19l339-290-338-325q-4 14-4 20z m45 635q7 3 17 3l913 0q9 0 18-3l-340-291-45-36-89-73-89 73-45 36z m1-694l341 327 132-107 132 107 341-327q-8-3-17-3l-913 0q-8 0-16 3z m650 364l338 290q3-9 3-19l0-576q0-9-3-20z" horiz-adv-x="1037" />
<glyph glyph-name="vimeo" unicode="&#xe80f;" d="m896 558q-32-186-171-351t-245-237q-42-28-81-17t-66 38-43 61q-16 32-78 239t-74 223q-16 12-38 5t-44-21l-20-14-36 50q18 20 46 52t100 89 124 67q30 6 53-7t36-35 23-60 15-70 12-75 13-67q14-54 21-80t17-54 18-39 18-11q40 0 126 166 42 76 6 124t-112 2q22 126 140 188 104 54 182 8 80-46 58-174z" horiz-adv-x="901" />
<glyph glyph-name="instagram" unicode="&#xe810;" d="m690 350q0 26-6 50l176 0 0-344q0-56-39-96t-95-40l-592 0q-56 0-95 40t-39 96l0 344 174 0q-4-32-4-50 0-106 76-183t184-77q106 0 183 77t77 183z m36 430q56 0 95-39t39-95l0-146-218 0q-78 110-212 110-138 0-212-110l-218 0 0 146q0 56 39 95t95 39l592 0z m64-166l0 72q0 24-24 24l-72 0q-24 0-24-24l0-72q0-8 7-16t17-8l72 0q24 0 24 24z m-200-264q0-66-47-113t-113-47-113 47-47 113q0 68 47 114t113 46 113-46 47-114z" horiz-adv-x="860" />
<glyph glyph-name="location-outline" unicode="&#xe811;" d="m416 741q-128 0-221-90-91-88-91-216 0-126 91-215l221-219 223 219q90 88 90 215 0 129-90 216-93 90-223 90z m0 104q174 0 295-120t122-290-122-290l-295-290-293 290q-123 120-123 290t123 290 293 120z m0-286q-52 0-91-39t-39-92 39-92q38-37 91-37 55 0 93 37 39 39 39 92t-39 92-93 39z m0 52q75 0 129-53t54-129-54-129-129-54-128 54-54 129 54 129 128 53z" horiz-adv-x="833" />
<glyph glyph-name="mobile" unicode="&#xe812;" d="m0-56l0 812q0 39 27 67t67 27l500 0q39 0 66-27t28-67l0-812q0-39-28-67t-66-27l-500 0q-39 0-67 27t-27 67z m63 0q0-14 8-23t23-9l500 0q13 0 22 9t9 23l0 62-562 0 0-62z m0 94l562 0 0 624-562 0 0-624z m0 656l562 0 0 62q0 14-9 23t-22 8l-500 0q-14 0-23-8t-8-23l0-62z m218 47q0 15 16 15l94 0q15 0 15-15t-15-16l-94 0q-16 0-16 16z m32-782q0 16 15 16l31 0q16 0 16-16t-16-15l-31 0q-15 0-15 15z" horiz-adv-x="687" />
<glyph glyph-name="up-open-big" unicode="&#xe813;" d="m804 130l-372 358-370-358q-26-22-50 0-24 24 0 50l396 390q26 26 48 0l396-390q24-26 0-50-26-22-48 0z" horiz-adv-x="864" />
<glyph glyph-name="wrench" unicode="&#xe814;" d="m214 29q0 14-10 25t-25 10-26-10-10-25 10-26 26-10 25 10 10 26z m360 234l-381-381q-21-20-50-20-29 0-51 20l-59 61q-21 20-21 50 0 29 21 51l380 380q22-55 64-97t97-64z m353 243q0-22-12-59-27-75-92-122t-144-46q-104 0-177 73t-73 177 73 176 177 74q32 0 67-10t60-26q9-6 9-15t-9-16l-163-94v-125l108-60q2 2 44 27t75 45 40 20q8 0 13-5t4-14z" horiz-adv-x="928.6" />
<glyph glyph-name="angle-double-down" unicode="&#xe815;" d="m600 368q0-7-6-13l-260-260q-5-6-13-6t-12 6l-260 260q-6 6-6 13t6 13l27 28q6 5 13 5t13-5l219-220 220 220q5 5 13 5t12-5l28-28q6-6 6-13z m0 214q0-7-6-13l-260-260q-5-5-13-5t-12 5l-260 260q-6 6-6 13t6 13l27 28q6 5 13 5t13-5l219-220 220 220q5 5 13 5t12-5l28-28q6-6 6-13z" horiz-adv-x="642.9" />
<glyph glyph-name="up-bold" unicode="&#xe816;" d="m760 336l-192 0 0-350-376 0 0 350-192 0 380 380z" horiz-adv-x="760" />
<glyph glyph-name="sort" unicode="&#xe817;" d="m571 243q0-15-10-25l-250-250q-11-11-25-11t-25 11l-250 250q-11 10-11 25t11 25 25 11h500q14 0 25-11t10-25z m0 214q0-14-10-25t-25-11h-500q-15 0-25 11t-11 25 11 25l250 250q10 11 25 11t25-11l250-250q10-10 10-25z" horiz-adv-x="571.4" />
<glyph glyph-name="sort-down" unicode="&#xe818;" d="m571 243q0-15-10-25l-250-250q-11-11-25-11t-25 11l-250 250q-11 10-11 25t11 25 25 11h500q14 0 25-11t10-25z" horiz-adv-x="571.4" />
<glyph glyph-name="sort-up" unicode="&#xe819;" d="m571 457q0-14-10-25t-25-11h-500q-15 0-25 11t-11 25 11 25l250 250q10 11 25 11t25-11l250-250q10-10 10-25z" horiz-adv-x="571.4" />
<glyph glyph-name="down-dir" unicode="&#xe81a;" d="m571 457q0-14-10-25l-250-250q-11-11-25-11t-25 11l-250 250q-11 11-11 25t11 25 25 11h500q14 0 25-11t10-25z" horiz-adv-x="571.4" />
<glyph glyph-name="up-dir" unicode="&#xe81b;" d="m571 171q0-14-10-25t-25-10h-500q-15 0-25 10t-11 25 11 26l250 250q10 10 25 10t25-10l250-250q10-11 10-26z" horiz-adv-x="571.4" />
<glyph glyph-name="phone-circled" unicode="&#xe81c;" d="m0 350q0 207 147 354t353 146 354-146 146-354-146-354-354-146-353 146-147 354z m199 162q-4-51 41-142 71-133 229-248 107-71 193-73 29 0 47 16l84 86q10 10 8 23t-16 24l-123 72q-19 12-45-6l-35-37q-6-6-18-2-11 2-24 8t-25 16-21 16-21 21-20 17q-64 61-80 119 0 4 4 10l31 31q18 18 8 43l-68 129q-12 18-28 16-9 0-19-8l-84-86q-18-16-18-45z" horiz-adv-x="1000" />
</font>
</defs>
</svg>